{
  "href" : "https://api.spotify.com/v1/me/tracks?offset=0&limit=2",
  "items" : [ {
    "added_at" : "2015-04-11T11:28:06Z",
    "track" : {
      "album" : {
        "album_type" : "album",
        "available_markets" : [ "AD", "AR", "AT", "AU", "BE", "BG", "BO", "BR", "CA", "CH", "CL", "CO", "CR", "CY", "CZ", "DE", "DK", "DO", "EC", "EE", "ES", "FI", "FR", "GB", "GR", "GT", "HK", "HN", "HU", "IE", "IS", "IT", "LI", "LT", "LU", "LV", "MC", "MT", "MX", "MY", "NI", "NL", "NO", "NZ", "PA", "PE", "PH", "PL", "PT", "PY", "RO", "SE", "SG", "SI", "SK", "SV", "TR", "TW", "US", "UY" ],
        "external_urls" : {
          "spotify" : "https://open.spotify.com/album/7LG4dNtFo690LRnDiPSPR1"
        },
        "href" : "https://api.spotify.com/v1/albums/7LG4dNtFo690LRnDiPSPR1",
        "id" : "7LG4dNtFo690LRnDiPSPR1",
        "images" : [ {
          "height" : 640,
          "url" : "https://i.scdn.co/image/399eb24e1fd2257a3eb65535dac12af4202f2bf8",
          "width" : 640
        }, {
          "height" : 300,
          "url" : "https://i.scdn.co/image/4722a660cf75c40cfd7268a787354886ee399e31",
          "width" : 300
        }, {
          "height" : 64,
          "url" : "https://i.scdn.co/image/29b3e5d5bbfdf707b140e6a1cace6047ce58d988",
          "width" : 64
        } ],
        "name" : "Everyone That Dragged You Here",
        "type" : "album",
        "uri" : "spotify:album:7LG4dNtFo690LRnDiPSPR1"
      },
      "artists" : [ {
        "external_urls" : {
          "spotify" : "https://open.spotify.com/artist/6dEtLwgmSI0hmfwTSjy8cw"
        },
        "href" : "https://api.spotify.com/v1/artists/6dEtLwgmSI0hmfwTSjy8cw",
        "id" : "6dEtLwgmSI0hmfwTSjy8cw",
        "name" : "Real Friends",
        "type" : "artist",
        "uri" : "spotify:artist:6dEtLwgmSI0hmfwTSjy8cw"
      } ],
      "available_markets" : [ "AD", "AR", "AT", "AU", "BE", "BG", "BO", "BR", "CA", "CH", "CL", "CO", "CR", "CY", "CZ", "DE", "DK", "DO", "EC", "EE", "ES", "FI", "FR", "GB", "GR", "GT", "HK", "HN", "HU", "IE", "IS", "IT", "LI", "LT", "LU", "LV", "MC", "MT", "MX", "MY", "NI", "NL", "NO", "NZ", "PA", "PE", "PH", "PL", "PT", "PY", "RO", "SE", "SG", "SI", "SK", "SV", "TR", "TW", "US", "UY" ],
      "disc_number" : 1,
      "duration_ms" : 190292,
      "explicit" : false,
      "external_ids" : {
        "isrc" : "TCABD1261906"
      },
      "external_urls" : {
        "spotify" : "https://open.spotify.com/track/4gxPBES4LPwndF3Xr7uHJ3"
      },
      "href" : "https://api.spotify.com/v1/tracks/4gxPBES4LPwndF3Xr7uHJ3",
      "id" : "4gxPBES4LPwndF3Xr7uHJ3",
      "name" : "Anchor Down",
      "popularity" : 46,
      "preview_url" : "https://p.scdn.co/mp3-preview/8079d9fca4b75e64df020651ccec2defa1f85207",
      "track_number" : 2,
      "type" : "track",
      "uri" : "spotify:track:4gxPBES4LPwndF3Xr7uHJ3"
    }
  }, {
    "added_at" : "2014-12-18T11:48:26Z",
    "track" : {
      "album" : {
        "album_type" : "album",
        "available_markets" : [ "AD", "AR", "AT", "AU", "BE", "BG", "BO", "BR", "CA", "CH", "CL", "CO", "CR", "CY", "CZ", "DE", "DK", "DO", "EC", "EE", "ES", "FI", "FR", "GB", "GR", "GT", "HK", "HN", "HU", "IE", "IS", "IT", "LI", "LT", "LU", "LV", "MC", "MT", "MX", "MY", "NI", "NL", "NO", "NZ", "PA", "PE", "PH", "PL", "PT", "PY", "RO", "SE", "SG", "SI", "SK", "SV", "TR", "TW", "US", "UY" ],
        "external_urls" : {
          "spotify" : "https://open.spotify.com/album/65gELRwTigKoP69u0pm615"
        },
        "href" : "https://api.spotify.com/v1/albums/65gELRwTigKoP69u0pm615",
        "id" : "65gELRwTigKoP69u0pm615",
        "images" : [ {
          "height" : 640,
          "url" : "https://i.scdn.co/image/1e1fd267c7e24294110522438e9db72eaafccb4e",
          "width" : 640
        }, {
          "height" : 300,
          "url" : "https://i.scdn.co/image/98f42d7acd713f59da9aa6b517f8dfa7fbf39bf2",
          "width" : 300
        }, {
          "height" : 64,
          "url" : "https://i.scdn.co/image/99951e9fa812fd730bb9ee0193fd50cd03e680c9",
          "width" : 64
        } ],
        "name" : "Talking in Your Sleep",
        "type" : "album",
        "uri" : "spotify:album:65gELRwTigKoP69u0pm615"
      },
      "artists" : [ {
        "external_urls" : {
          "spotify" : "https://open.spotify.com/artist/6DL8cHjzUa0J8WSH2EWDMX"
        },
        "href" : "https://api.spotify.com/v1/artists/6DL8cHjzUa0J8WSH2EWDMX",
        "id" : "6DL8cHjzUa0J8WSH2EWDMX",
        "name" : "The Cinema",
        "type" : "artist",
        "uri" : "spotify:artist:6DL8cHjzUa0J8WSH2EWDMX"
      } ],
      "available_markets" : [ "AD", "AR", "AT", "AU", "BE", "BG", "BO", "BR", "CA", "CH", "CL", "CO", "CR", "CY", "CZ", "DE", "DK", "DO", "EC", "EE", "ES", "FI", "FR", "GB", "GR", "GT", "HK", "HN", "HU", "IE", "IS", "IT", "LI", "LT", "LU", "LV", "MC", "MT", "MX", "MY", "NI", "NL", "NO", "NZ", "PA", "PE", "PH", "PL", "PT", "PY", "RO", "SE", "SG", "SI", "SK", "SV", "TR", "TW", "US", "UY" ],
      "disc_number" : 1,
      "duration_ms" : 231312,
      "explicit" : false,
      "external_ids" : {
        "isrc" : "TCACA1492879"
      },
      "external_urls" : {
        "spotify" : "https://open.spotify.com/track/4HV3NAFW6Lm8TfAWWmGNRv"
      },
      "href" : "https://api.spotify.com/v1/tracks/4HV3NAFW6Lm8TfAWWmGNRv",
      "id" : "4HV3NAFW6Lm8TfAWWmGNRv",
      "name" : "Punchline",
      "popularity" : 29,
      "preview_url" : "https://p.scdn.co/mp3-preview/20402292b9c06684616f5b154e98086c738d3da1",
      "track_number" : 6,
      "type" : "track",
      "uri" : "spotify:track:4HV3NAFW6Lm8TfAWWmGNRv"
    }
  } ],
  "limit" : 2,
  "next" : "https://api.spotify.com/v1/me/tracks?offset=2&limit=2",
  "offset" : 0,
  "previous" : null,
  "total" : 44
}